<?xml version="1.0" encoding="UTF-8" ?>
<gpx version="1.1"> 
	<rte>
		<rtept lat="xx.xxx" lon="yy.yyy" />
		<!-- weitere Routenpunkte -->
	</rte>  
	<!-- weitere Routen -->
	<trk>
		<trkseg>
			<trkpt lat="xx.xxx" lon="yy.yyy" />
		</trkseg>
	</trk>
</gpx>